<svg width="723" height="80" viewBox="0 0 723 80" fill="none" xmlns="http://www.w3.org/2000/svg">
<mask id="mask0_1204_3189" style="mask-type:alpha" maskUnits="userSpaceOnUse" x="0" y="0" width="723" height="80">
<rect x="0.5" width="722" height="80" fill="url(#paint0_linear_1204_3189)"/>
</mask>
<g mask="url(#mask0_1204_3189)">
<g filter="url(#filter0_d_1204_3189)">
<rect x="23.5" y="12" width="676" height="1" fill="url(#paint1_linear_1204_3189)" shape-rendering="crispEdges"/>
</g>
<g filter="url(#filter1_d_1204_3189)">
<rect x="23.5" y="67" width="676" height="1" fill="url(#paint2_linear_1204_3189)" shape-rendering="crispEdges"/>
</g>
</g>
<defs>
<filter id="filter0_d_1204_3189" x="11.5" y="0" width="700" height="25" filterUnits="userSpaceOnUse" color-interpolation-filters="sRGB">
<feFlood flood-opacity="0" result="BackgroundImageFix"/>
<feColorMatrix in="SourceAlpha" type="matrix" values="0 0 0 0 0 0 0 0 0 0 0 0 0 0 0 0 0 0 127 0" result="hardAlpha"/>
<feOffset/>
<feGaussianBlur stdDeviation="6"/>
<feComposite in2="hardAlpha" operator="out"/>
<feColorMatrix type="matrix" values="0 0 0 0 1 0 0 0 0 1 0 0 0 0 1 0 0 0 0.4 0"/>
<feBlend mode="normal" in2="BackgroundImageFix" result="effect1_dropShadow_1204_3189"/>
<feBlend mode="normal" in="SourceGraphic" in2="effect1_dropShadow_1204_3189" result="shape"/>
</filter>
<filter id="filter1_d_1204_3189" x="11.5" y="55" width="700" height="25" filterUnits="userSpaceOnUse" color-interpolation-filters="sRGB">
<feFlood flood-opacity="0" result="BackgroundImageFix"/>
<feColorMatrix in="SourceAlpha" type="matrix" values="0 0 0 0 0 0 0 0 0 0 0 0 0 0 0 0 0 0 127 0" result="hardAlpha"/>
<feOffset/>
<feGaussianBlur stdDeviation="6"/>
<feComposite in2="hardAlpha" operator="out"/>
<feColorMatrix type="matrix" values="0 0 0 0 1 0 0 0 0 1 0 0 0 0 1 0 0 0 0.4 0"/>
<feBlend mode="normal" in2="BackgroundImageFix" result="effect1_dropShadow_1204_3189"/>
<feBlend mode="normal" in="SourceGraphic" in2="effect1_dropShadow_1204_3189" result="shape"/>
</filter>
<linearGradient id="paint0_linear_1204_3189" x1="0.5" y1="40" x2="722.5" y2="40" gradientUnits="userSpaceOnUse">
<stop stop-color="#D9D9D9" stop-opacity="0"/>
<stop offset="0.510511" stop-color="#D9D9D9"/>
<stop offset="1" stop-color="#D9D9D9" stop-opacity="0"/>
</linearGradient>
<linearGradient id="paint1_linear_1204_3189" x1="23.5" y1="12.5" x2="699.5" y2="12.5" gradientUnits="userSpaceOnUse">
<stop stop-color="#3F3C73" stop-opacity="0"/>
<stop offset="0.53" stop-color="#8A66D8"/>
<stop offset="1" stop-color="#3F3C73" stop-opacity="0"/>
</linearGradient>
<linearGradient id="paint2_linear_1204_3189" x1="23.5" y1="67.5" x2="699.5" y2="67.5" gradientUnits="userSpaceOnUse">
<stop stop-color="#3F3C73" stop-opacity="0"/>
<stop offset="0.53" stop-color="#8A66D8"/>
<stop offset="1" stop-color="#3F3C73" stop-opacity="0"/>
</linearGradient>
</defs>
</svg>
